Regression Review
…
Check model fit. Use predict() to see the performance:

probability.table <- fitted(species_model_1)
head(probability.table)

##           1           2           3           4           5           6 
## 0.001853347 0.001853347 0.001853347 0.001853347 0.001853347 0.001853347

coffee$predicted <- predict(species_model_1, newdata = coffee)
coffee <- coffee %>% 
  mutate(pred_cat = if_else(predicted > 0, "Robusta", "Arabica"))

coffee %>% select(species, predicted, pred_cat)

## # A tibble: 1,324 x 3
##    species predicted pred_cat
##    <fct>       <dbl> <chr>   
##  1 Arabica     -6.29 Arabica 
##  2 Arabica     -6.29 Arabica 
##  3 Arabica     -6.29 Arabica 
##  4 Arabica     -6.29 Arabica 
##  5 Arabica     -6.29 Arabica 
##  6 Arabica     -6.29 Arabica 
##  7 Arabica     -6.29 Arabica 
##  8 Arabica     -4.14 Arabica 
##  9 Arabica     -4.14 Arabica 
## 10 Arabica     -6.29 Arabica 
## # … with 1,314 more rows
…
